{
  "name": "lfg",
  "title": "Low Fantasy Gaming,tesing system",
  "description": "Low Fantasy Gaming system for FoundryVTT. Low Fantasy Gaming is authored by S J Grodzicki, copyright 2016. Used with permission from Pickpocket Press.",
  "version": "0.1.4",
  "minimumCoreVersion": "0.5.5",
  "compatibleCoreVersion": "0.7.9",
  "templateVersion": 2,
  "author": "Devin Beech",
  "esmodules": ["module/lfg.js"],
  "styles": ["css/lfg.css"],
  "scripts": [],
  "packs": [
    {
      "name": "weapon-attacks",
      "label": "Weapon Attacks",
      "system": "lfg",
      "path": "./packs/weapon-attacks.db",
      "entity": "Macro"
    },
    {
      "name": "monsters",
      "label": "Monsters",
      "system": "lfg",
      "path": "./packs/monsters.db",
      "entity": "Actor"
    },
    {
      "name": "roll-tables",
      "label": "Rollable Tables",
      "system": "lfg",
      "path": "./packs/rollable-tables.db",
      "entity": "RollTable"
    },
    {
      "name": "weapons",
      "label": "Weapons",
      "system": "lfg",
      "path": "./packs/weapons.db",
      "entity": "Item"
    },
    {
      "name": "common-equipment",
      "label": "Common Equipment",
      "system": "lfg",
      "path": "./packs/common-equipment.db",
      "entity": "Item"
    },
    {
      "name": "uncommon-equipment",
      "label": "Uncommon Equipment",
      "system": "lfg",
      "path": "./packs/uncommon-equipment.db",
      "entity": "Item"
    },
    {
      "name": "rare-equipment",
      "label": "Rare Equipment",
      "system": "lfg",
      "path": "./packs/rare-equipment.db",
      "entity": "Item"
    }
  ],
  "languages": [
    {
      "lang": "en",
      "name": "English",
      "path": "lang/en.json"
    }
  ],
  "socket": false,
  "initiative": "1d20 + @attributes.initBonus.value",
  "gridDistance": 5,
  "gridUnits": "ft",
  "primaryTokenAttribute": "health",
  "secondaryTokenAttribute": "ac",
  "url": "https://gitlab.com/tomski80/lfg",
  "manifest": "https://gitlab.com/tomski80/lfg/-/blob/master/system.json",
  "download": "https://gitlab.com/tomski80/lfg/-/archive/master/lfg-master.zip",
  "license": "OGL.txt"
}
